name,y2018,y2019,2020
"Afghanistan, Islamic Rep. of",95.51189,73.126117,78.961627
Albania,298.785269,293.041767,293.292126
Algeria,2545.179289,2274.061855,1871.754713
American Samoa,0.00809,0.023703,0.181472
Angola,158.538819,142.071025,137.764088
Anguilla,1.252497,0.459868,1.384628
Antigua and Barbuda,16.108096,6.186135,9.183783
Argentina,3449.196956,2673.789563,2103.954092
"Armenia, Rep. of",236.490576,202.166648,212.879914
"Aruba, Kingdom of the Netherlands",8.577986,10.155073,7.428172
Australia,11924.322869,10458.173141,9731.904961
Austria,76808.911465,73957.248577,68680.103687
"Azerbaijan, Rep. of",511.543539,496.075279,410.988034
"Bahamas, The",38.684224,27.525273,29.092939
"Bahrain, Kingdom of",425.972564,420.601198,581.210861
Bangladesh,980.255628,910.186585,605.491779
Barbados,18.695361,27.462238,17.307842
"Belarus, Rep. of",1756.764662,1634.590592,1575.613928
Belgium,52428.114483,51744.155337,49514.583531
Belize,3.39848,3.445053,4.149956
Benin,46.126789,40.093741,41.765774
Bermuda,9.429745,134.226534,13.298894
Bhutan,2.083226,5.651917,8.103187
Bolivia,166.264226,137.036306,118.348011
Bosnia and Herzegovina,1061.966205,975.821602,890.866629
Botswana,87.678118,74.126502,45.213324
Brazil,11161.84743,11386.659205,9670.429916
Brunei Darussalam,131.159208,78.009446,74.602385
Bulgaria,4708.741331,4399.910529,4165.93017
Burkina Faso,90.818857,68.216905,81.990653
Burundi,11.298056,14.998983,9.805838
Cabo Verde,10.931654,14.463855,8.751024
Cambodia,155.314918,158.420513,169.223831
Cameroon,124.516662,107.53889,122.212452
Canada,12127.317261,12143.131416,10667.210217
Central African Rep.,11.800691,10.762785,7.576235
Chad,16.051287,17.157353,13.405835
Chile,3125.865204,3224.486257,2152.027474
"China, P.R.: Hong Kong",7144.056251,6598.177886,6409.161721
"China, P.R.: Macao",116.542151,163.466525,84.185431
"China, P.R.: Mainland",110547.62357,107743.120935,110373.000321
Colombia,1744.55405,1911.883585,1504.371651
"Comoros, Union of the",1.371887,0.919954,1.707556
"Congo, Dem. Rep. of the",105.006911,89.741239,114.192248
"Congo, Rep. of",49.705544,48.413871,50.438914
Costa Rica,292.346578,237.973018,223.317753
Côte d'Ivoire,247.432363,237.25097,271.170599
"Croatia, Rep. of",4260.861609,4177.5708,3845.284833
Cuba,266.367052,221.111354,158.66188
"Curaçao, Kingdom of the Netherlands",47.00679,23.019388,16.259323
Cyprus,757.971556,704.511466,848.449201
Czech Rep.,52270.208012,49763.984433,45227.48971
Denmark,23761.915766,21545.456525,21144.43575
Djibouti,16.713716,18.739551,18.458482
Dominica,1.744681,1.732337,0.89758
Dominican Rep.,332.710285,300.095035,259.815773
Ecuador,552.558182,501.631494,457.312775
"Egypt, Arab Rep. of",3876.932081,4045.185257,4599.446209
El Salvador,251.939017,499.304412,137.410613
"Equatorial Guinea, Rep. of",21.890453,24.315528,17.927556
"Eritrea, The State of",15.600184,14.364433,6.597837
"Estonia, Rep. of",2364.247481,2042.688891,2091.335524
"Eswatini, Kingdom of",8.588625,9.274872,8.854265
"Ethiopia, The Federal Dem. Rep. of",297.567787,344.722547,269.689291
Falkland Islands (Malvinas),0.085826,0.072903,0.057282
Faroe Islands,87.109413,142.694793,69.283382
"Fiji, Rep. of",9.055305,9.683797,9.55842
Finland,13126.628225,12376.332755,11587.845766
France,124560.117115,119301.750239,103870.441766
French Polynesia,35.988195,28.720151,21.610999
Gabon,57.385553,44.169395,30.546892
"Gambia, The",14.017025,23.021374,18.193369
Georgia,424.589095,451.560213,362.496702
Ghana,271.349098,267.132079,297.47449
Gibraltar,32.076409,33.482819,21.318744
Greece,6768.124377,6788.907282,6919.919336
Greenland,6.99764,12.615756,10.654003
Grenada,4.473622,3.252132,4.409105
Guam,7.137486,6.976923,4.267871
Guatemala,333.875649,317.912065,271.845386
Guinea,135.44584,166.701806,128.207187
Guinea-Bissau,3.259162,3.068546,3.275684
Guyana,11.585325,12.310695,14.207353
Haiti,45.626569,31.634254,44.287677
Holy See,3.522512,2.666993,2.089587
Honduras,193.18051,160.739749,116.191525
Hungary,31001.030478,30167.214421,28184.595717
Iceland,847.051995,534.054615,475.389793
India,14734.985245,13324.997542,12233.014422
Indonesia,3378.784354,3096.929978,2387.35747
"Iran, Islamic Rep. of",3188.192778,1691.162164,1759.556796
Iraq,843.891169,1102.925619,1041.188315
Ireland,13488.34733,8892.988351,8830.033653
Israel,5359.341112,5201.27881,5043.66052
Italy,82460.658178,75946.730666,69283.733188
Jamaica,119.978815,71.438555,61.001337
Japan,24565.803973,23483.804435,20156.769535
Jordan,958.508333,863.07382,719.226336
"Kazakhstan, Rep. of",1657.496743,1612.439606,1663.329318
Kenya,436.081443,391.229456,300.093252
Kiribati,0.015517,0.034103,0.053884
"Korea, Dem. People's Rep. of",3.115784,1.250056,
"Korea, Rep. of",21078.014316,19647.873383,20706.295418
"Kosovo, Rep. of",277.116978,286.567647,258.04234
Kuwait,1510.934093,1620.986064,1181.874915
Kyrgyz Rep.,70.919231,63.237934,45.699873
Lao People's Dem. Rep.,34.939558,23.556011,57.597485
Latvia,2119.375209,1924.991178,1785.158419
Lebanon,894.862625,722.474534,891.045697
"Lesotho, Kingdom of",1.673396,1.89686,2.789799
Liberia,295.917125,243.035546,322.502968
Libya,381.723269,481.745676,399.128856
Lithuania,4077.4772,3867.778384,3951.18277
Luxembourg,7134.3737,6450.385344,6309.756856
"Madagascar, Rep. of",46.004806,58.413743,38.512632
Malawi,22.617058,34.056638,26.786474
Malaysia,6114.485794,6230.004979,5291.439026
Maldives,54.291,47.651785,26.802638
Mali,123.97106,95.705203,107.967825
Malta,798.674044,962.0024,551.669679
"Marshall Islands, Rep. of the",801.846932,173.931447,1010.962441
"Mauritania, Islamic Rep. of",83.777456,75.841584,66.003424
Mauritius,154.313811,159.957541,123.649516
Mexico,16506.245896,15422.418995,12995.453438
"Micronesia, Federated States of",0.224949,0.05566,0.124033
"Moldova, Rep. of",481.547212,476.332177,419.387282
Mongolia,157.796146,166.315106,179.694114
Montenegro,147.513294,133.442316,118.865475
Montserrat,0.101773,0.114018,0.458844
Morocco,2410.211339,2461.421665,2190.193768
"Mozambique, Rep. of",122.481125,109.799072,70.214328
Myanmar,144.329701,169.498992,160.674583
Namibia,66.44424,65.00956,50.758856
"Nauru, Rep. of",0.0405,0.162838,
Nepal,54.090328,48.355602,31.005591
"Netherlands, The",107618.999316,102458.862197,96644.169674
New Caledonia,48.337105,52.065558,45.484437
New Zealand,1780.459707,1937.795118,1377.8434
Nicaragua,63.985179,53.802349,55.173076
Niger,25.65722,35.793476,69.04655
Nigeria,1019.883664,1124.026137,1014.450388
"North Macedonia, Republic of",1429.255108,1408.413233,1185.536189
Norway,10717.972936,10202.467311,9591.150145
Oman,943.391136,972.099257,837.513879
Pakistan,1550.105293,1250.421649,1210.326901
"Palau, Rep. of",0.252493,0.022424,0.124328
Panama,480.278177,649.194921,405.698558
Papua New Guinea,26.654261,33.558237,18.789114
Paraguay,209.21552,191.802581,165.238982
Peru,984.177877,1041.093246,866.473346
Philippines,3034.257353,2794.022094,2192.014658
"Poland, Rep. of",74801.814416,73678.967192,74405.934444
Portugal,11844.705566,11938.085683,10165.895723
Qatar,1587.310513,1617.011483,1752.028648
Romania,19191.891341,18843.130336,18146.578759
Russian Federation,30654.033041,29855.085825,26482.093539
Rwanda,51.946026,63.663602,80.225382
Samoa,2.173422,3.19463,0.266962
"San Marino, Rep. of",61.306163,64.674706,51.243161
"São Tomé and Príncipe, Dem. Rep. of",0.343366,1.283014,0.652677
Saudi Arabia,7363.527408,6584.515114,6617.142391
Senegal,146.18389,141.207464,183.99179
"Serbia, Rep. of",3131.740845,3265.841552,3262.470527
Seychelles,17.817472,94.332817,87.495794
Sierra Leone,23.641176,18.667191,15.215579
Singapore,9339.827323,8145.711989,6948.346257
"Sint Maarten, Kingdom of the Netherlands",4.260111,4.664593,3.388274
Slovak Rep.,16656.903519,15924.159754,15303.701037
"Slovenia, Rep. of",6582.977644,6132.310058,5605.595261
Solomon Islands,0.303389,0.414575,0.241444
Somalia,26.807204,30.639913,33.069893
South Africa,10499.560854,10364.019539,7494.470794
"South Sudan, Rep. of",5.865388,10.644766,9.245272
Spain,52216.79769,49475.062625,42992.168354
Sri Lanka,413.102746,353.362115,265.34347
St. Kitts and Nevis,8.120899,14.750702,6.16553
St. Lucia,4.216708,3.471215,3.578508
St. Vincent and the Grenadines,1.603744,9.793428,2.927213
Sudan,184.97499,174.48901,180.727034
Suriname,25.87103,28.892771,26.694699
Sweden,30955.849662,27884.859776,26621.718475
Switzerland,64312.138422,63615.402063,64767.561375
Syrian Arab Rep.,103.494262,97.820072,67.128638
Taiwan Province of China,9299.583519,8721.189252,9344.226652
"Tajikistan, Rep. of",56.810287,31.861566,41.401512
"Tanzania, United Rep. of",176.079633,194.987937,179.598816
Thailand,5964.04066,5605.199067,4765.088855
"Timor-Leste, Dem. Rep. of",0.25768,0.355538,0.320999
Togo,57.340128,58.947296,78.042076
Tonga,0.196478,0.261771,0.256049
Trinidad and Tobago,109.050839,112.164299,116.923016
Tunisia,1826.442577,1698.041228,1490.293799
Turkey,23301.963046,22446.331376,25346.654168
Turkmenistan,172.203118,181.853187,190.187049
Tuvalu,0.026421,0.011669,0.097035
Uganda,121.350425,122.157693,151.398086
Ukraine,5414.379517,5503.626655,5346.013756
United Arab Emirates,9684.22245,9731.492899,7918.415326
United Kingdom,97153.5106,88627.830337,76776.648559
United States,135287.237752,133667.051991,118687.577544
Uruguay,268.189252,266.28772,281.214053
"Uzbekistan, Rep. of",805.12173,975.494211,684.767422
Vanuatu,1.047376,0.745569,0.423936
"Venezuela, Rep. Bolivariana de",149.698796,58.115097,38.181188
Vietnam,4816.029399,4826.810782,3402.046082
West Bank and Gaza,105.774409,88.678699,94.315016
"Yemen, Rep. of",68.221269,98.886922,104.329923
Zambia,75.785788,70.325727,47.088888
Zimbabwe,38.704446,36.686381,48.765101
