name,y2018,y2019,2020
"Afghanistan, Islamic Rep. of",1241.789199,2317.050756,1872.8087469000002
Albania,2888.585429,2923.348692,2561.495113
Algeria,42215.021996,36720.340351,22627.685875299998
American Samoa,66.547417,27.63298,19.677522
Angola,43246.242921,37151.12432,23262.661418
Anguilla,16.948471,47.401591,34.0418009
Antigua and Barbuda,248.346778,334.447927,260.851914
Argentina,64459.319848,68615.221414,61706.6110924
"Armenia, Rep. of",2438.870269,2969.442582,2989.1863649
"Aruba, Kingdom of the Netherlands",81.39872,122.682422,168.2492598
Australia,271897.345539,286799.06627,257064.06751729996
Austria,193077.981998,189480.090987,175641.32792460002
"Azerbaijan, Rep. of",21145.163894,18166.180497,13356.3977578
"Bahamas, The",1532.131978,1417.528909,1090.1133992999999
"Bahrain, Kingdom of",13369.890113,14466.444522,11011.0678305
Bangladesh,39719.585902,41546.986044,36215.0220894
Barbados,430.598468,388.450322,324.73902830000003
"Belarus, Rep. of",26049.653957,26269.777909,25337.533289
Belgium,426339.85996,409477.537397,374439.0320015
Belize,536.654798,342.936727,389.963172
Benin,1586.137249,1660.317319,1642.136797
Bermuda,312.171683,601.986708,249.2667924
Bhutan,360.023996,333.567287,239.375482
Bolivia,8630.677586,8558.775348,7408.607873
Bosnia and Herzegovina,7516.487165,6782.21874,6139.619708300001
Botswana,5987.251927,4973.143645,4160.7731975
Brazil,257123.99537,247390.903598,236490.1334177
Brunei Darussalam,6354.591568,6699.973722,7252.977569
Bulgaria,32618.218879,33033.464586,31620.266044599997
Burkina Faso,3013.929951,3328.801049,4384.1419
Burundi,251.216853,247.907882,168.867054
Cabo Verde,139.405204,116.126987,111.240005
Cambodia,18743.855585,24442.014761,23067.2324842
Cameroon,5168.252189,5911.117864,4821.6034678000005
Canada,452304.126703,456801.618703,388492.8821595
Central African Rep.,121.070102,86.644673,141.496181
Chad,1750.107254,1342.991402,1496.15289
Chile,81641.621586,76344.146367,76366.8910617
"China, P.R.: Hong Kong",85233.049979,84367.020546,94390.2862377
"China, P.R.: Macao",3108.714106,3849.271957,3836.1396046
"China, P.R.: Mainland",2.629456677098e6,2.549132791124e6,2.5064139723075e6
Colombia,46446.754057,43254.316895,34711.9505329
"Comoros, Union of the",102.333485,64.184709,61.1251617
"Congo, Dem. Rep. of the",11275.780604,8038.031016,11765.313836
"Congo, Rep. of",11595.706351,10889.335414,6832.95424
Costa Rica,14352.204539,14744.378207,15359.604425799998
Côte d'Ivoire,12497.02326,12699.064244,13011.7276081
"Croatia, Rep. of",15736.336809,15637.636792,14856.5876982
Cuba,2071.483936,1781.443854,1873.05094
"Curaçao, Kingdom of the Netherlands",351.732602,213.499072,145.412906
Cyprus,4524.332208,4246.803317,3891.8760045
Czech Rep.,194503.676263,190876.017054,181208.6179171
Denmark,107306.236654,106671.050486,104177.7895215
Djibouti,281.719561,239.013621,236.785219
Dominica,78.322003,59.173254,43.843219
Dominican Rep.,9590.746528,10358.961314,9979.493432
Ecuador,22786.338606,24369.693615,21813.6931375
"Egypt, Arab Rep. of",31835.338919,34457.633194,31094.2819422
El Salvador,6047.480145,5746.63537,5143.0111004
"Equatorial Guinea, Rep. of",6374.45201,4985.744158,3104.654654
"Eritrea, The State of",604.773149,497.372601,641.108833
"Estonia, Rep. of",15730.577499,15316.018696,15131.1843175
"Eswatini, Kingdom of",2366.495224,2636.098685,2150.3660587
"Ethiopia, The Federal Dem. Rep. of",2776.7536,3147.567611,3089.1901659
Falkland Islands (Malvinas),293.194035,315.536343,406.011712
Faroe Islands,1516.591633,1743.290886,1479.361638
"Fiji, Rep. of",716.572047,729.273628,797.88244
Finland,80585.001601,77671.871891,69214.0390312
France,608348.927031,607580.199477,518563.78354790004
French Polynesia,223.395053,204.879536,86.512657
Gabon,6983.48727,7287.489396,5334.1478084
"Gambia, The",117.19137,181.861501,141.303184
Georgia,2627.639246,2752.177448,4557.1853005
Germany,1.520006248296e6,1.456482180503e6,1.3496739209817e6
Ghana,15791.673678,16201.779209,14891.938043799999
Gibraltar,235.732095,228.186572,427.938672
Greece,35807.392735,33889.064403,32426.6349135
Greenland,1054.693817,1259.806405,1320.834051
Grenada,72.761978,41.067734,31.084626
Guam,160.430183,154.928443,182.76636630000002
Guatemala,11276.814437,11102.227566,11426.7945406
Guinea,6442.701108,6980.202861,12255.9676665
Guinea-Bissau,154.332891,243.99468,188.864844
Guyana,1569.465322,1516.470599,2559.852789
Haiti,1230.811478,1330.809696,1027.3126845
Holy See,7.959111,6.411514,15.047947
Honduras,8966.832998,9232.708073,8467.8386578
Hungary,123063.328067,122479.289553,119698.68812030001
Iceland,6070.092442,5331.78916,5006.7699573
India,318127.198967,322824.917736,277042.0757855
Indonesia,209348.42625,203052.893002,187649.68384520002
"Iran, Islamic Rep. of",75626.658062,31697.195453,14825.3710388
Iraq,95870.999617,91215.029278,64184.1187044
Ireland,200859.630776,209671.610035,220804.853193
Israel,66431.220667,62747.819873,57974.477654
Italy,555493.770635,542414.311825,500904.5667119
Jamaica,1525.104243,1470.758062,1129.976593
Japan,771734.962524,742348.439191,668143.3254608001
Jordan,8027.880271,8883.232211,8618.788810299999
"Kazakhstan, Rep. of",51209.04507,49502.493174,41313.282444699995
Kenya,6318.894654,6649.349798,6736.0534028
Kiribati,153.499112,131.557043,219.9181143
"Korea, Dem. People's Rep. of",712.972803,471.420432,225.752307
"Korea, Rep. of",644085.682782,599853.760728,579327.4654899
"Kosovo, Rep. of",310.578308,335.282449,419.377877
Kuwait,68907.750362,62947.038394,41967.5293
Kyrgyz Rep.,1626.954405,1878.064226,1788.3575191
Lao People's Dem. Rep.,6038.217946,6209.415693,6674.200908100001
Latvia,15806.68272,14781.068492,14744.6591365
Lebanon,3873.728681,4938.116649,4316.071256
"Lesotho, Kingdom of",1296.47746,1141.718174,973.033432
Liberia,1483.923285,1433.949493,1105.884113
Libya,30626.842967,29442.85618,9439.798369
Lithuania,30328.280312,30063.759423,27875.6960726
Luxembourg,20898.56147,19621.030177,17251.865154900002
"Madagascar, Rep. of",3895.286907,3560.374313,2707.0389026999997
Malawi,1024.339575,1081.123704,897.589556
Malaysia,330586.129595,331169.235953,316351.1429393
Maldives,540.938983,284.525062,236.616297
Mali,3190.462689,5247.653864,5341.1525341999995
Malta,5233.927736,5015.76924,4677.6835323000005
"Marshall Islands, Rep. of the",667.485523,955.45801,694.877992
"Mauritania, Islamic Rep. of",3022.269255,3292.892409,3488.4800616
Mauritius,2784.402644,2599.062592,2038.7412
Mexico,480817.643367,489990.812134,440845.4415936
"Micronesia, Federated States of",156.384738,228.297157,212.29654
"Moldova, Rep. of",3348.118033,3289.14709,2959.0052863
Mongolia,7326.680743,7203.202984,6175.41578
Montenegro,396.564513,425.791219,469.657319
Montserrat,35.829169,10.822429,19.83641
Morocco,30730.294996,30175.681731,28157.767476
"Mozambique, Rep. of",6910.813993,6302.81352,5043.0215547
Myanmar,15270.870343,18937.984967,18158.2137265
Namibia,5772.447798,4680.232061,4107.893977199999
"Nauru, Rep. of",37.073594,64.231894,123.225318
Nepal,1296.502553,1610.015719,1617.8157479000001
Netherlands Antilles,1101.285436,856.408942,721.708286
"Netherlands, The",639946.722192,614305.060485,576459.1428293
New Caledonia,2051.948057,1794.467529,1844.6413089999999
New Zealand,41269.04842,41786.417267,39540.87461740001
Nicaragua,5831.938027,6158.907547,6015.5342171
Niger,660.990995,1034.951057,2522.428725
Nigeria,65720.112997,59848.916755,40638.249804
"North Macedonia, Republic of",7387.200756,7581.927802,6690.3250147
Norway,124185.540006,107419.817055,87455.01239310001
Oman,43898.451907,43460.359079,36306.34420790001
Pakistan,25317.38523,24459.741824,22548.5013042
"Palau, Rep. of",38.635848,24.002683,8.795566
Panama,7040.635692,6493.926721,6149.2621771
Papua New Guinea,11207.580786,11770.426905,9930.375912
Paraguay,7410.552619,6494.068702,7025.0490336
Peru,50090.221111,49558.083015,45803.906873800006
Philippines,95952.265755,94331.092328,86228.8915995
"Poland, Rep. of",251491.644397,255865.804415,257671.0037396
Portugal,66531.772485,65342.475336,61633.7570261
Qatar,83835.076829,74658.686739,55121.2265835
Romania,83635.214126,80292.447361,71305.5015394
Russian Federation,448860.519012,422773.261567,337781.1997709
Rwanda,1051.184077,841.605702,980.562511
Samoa,47.279013,55.012329,57.08268
"San Marino, Rep. of",159.575908,152.318667,158.63245880000002
"São Tomé and Príncipe, Dem. Rep. of",713.412727,607.179366,504.561755
Saudi Arabia,277182.309747,250336.068652,175395.4734698
Senegal,4235.891313,4350.929859,4153.2317239
"Serbia, Rep. of",19342.124838,19684.273218,19876.711756
Seychelles,748.028231,696.97618,653.710275
Sierra Leone,773.006967,879.580447,723.7238427999999
Singapore,270964.060483,252538.261408,238118.2413564
"Sint Maarten, Kingdom of the Netherlands",108.180076,1257.593309,187.149291
Slovak Rep.,94115.854535,93115.251314,88197.31967360001
"Slovenia, Rep. of",38220.89526,37864.192127,35955.0858515
Solomon Islands,905.840147,706.222525,543.7721458999999
Somalia,568.023766,679.715202,554.2422677000001
South Africa,127138.960174,124751.107184,116868.2575732
"South Sudan, Rep. of",1686.22158,1709.927395,942.9812529999995
Spain,324830.678293,318477.956787,297142.0635368
Sri Lanka,11603.675611,11528.878809,10187.9305061
St. Kitts and Nevis,108.408516,88.657904,72.6094934
St. Lucia,181.064263,107.040396,85.055073
St. Vincent and the Grenadines,184.389007,210.998712,119.274398
Sudan,4098.07678,4032.442245,4002.9802486
Suriname,2373.339439,2716.369797,2345.1983781999998
Sweden,169835.853289,161935.338191,153186.7510517
Switzerland,329052.109282,324647.36818,317924.7737974
Syrian Arab Rep.,882.358934,1008.509521,1167.6049324
Taiwan Province of China,468316.125699,467746.288304,515190.833008
"Tajikistan, Rep. of",1531.518161,1162.817952,1629.3215129
"Tanzania, United Rep. of",7241.130646,6718.251068,7976.7206508
Thailand,271839.433183,267074.909062,255009.6793292
"Timor-Leste, Dem. Rep. of",81.155795,127.162425,96.603264
Togo,3874.61332,3396.804921,2365.00968
Tonga,14.997876,18.90639,11.992995
Trinidad and Tobago,13397.144945,10918.306487,8265.69148
Tunisia,18375.457074,18267.688618,16245.788555
Turkey,176984.683511,182813.536444,169207.24737589998
Turkmenistan,10346.167014,11173.327448,8301.084037
Tuvalu,18.395057,11.192165,9.315975
Uganda,3947.757299,4210.787002,4032.8903401999996
Ukraine,52920.094759,55961.317897,53935.1445563
United Arab Emirates,214676.124346,212037.890059,169355.3711606
United Kingdom,476015.566949,442791.553855,379119.16109390004
United States,1.633844343291e6,1.597563769282e6,1.3978887988712e6
Uruguay,10220.448055,11038.312704,9516.22985
"Uzbekistan, Rep. of",9481.476178,12311.489249,12564.0101199
Vanuatu,189.949511,188.257642,271.990342
"Venezuela, Rep. Bolivariana de",35284.835047,17035.464756,5298.1651661999995
Vietnam,287564.528251,315035.91538,337956.4301653
West Bank and Gaza,128.716387,146.157928,180.5985576
"Yemen, Rep. of",1690.373612,1659.316814,1444.7657295
Zambia,9916.060085,9624.820782,9008.802940700001
Zimbabwe,3439.081231,3308.242202,3867.823907
