name,y2018,y2019,2020
"Afghanistan, Islamic Rep. of",12.420218,20.64911,16.086666
Albania,91.937894,104.866388,110.148476
Algeria,747.690024,720.377185,675.208554
American Samoa,0.021617,0.00227,0.067104
Angola,53.682394,2.083955,1.630338
Anguilla,0.064848,,0.00012
Antigua and Barbuda,23.33817,8.750806,0.440346
Argentina,1164.782062,833.553846,731.553167
"Armenia, Rep. of",108.408184,43.743907,28.421388
"Aruba, Kingdom of the Netherlands",0.116365,0.142313,0.020211
Australia,2029.021778,2256.79874,2565.03367
Austria,55423.615608,54138.739257,51079.847151
"Azerbaijan, Rep. of",1697.420789,1509.477722,824.359438
"Bahamas, The",1.231664,27.535483,1.593146
"Bahrain, Kingdom of",38.833563,42.778581,95.44201
Bangladesh,4744.186143,4587.428723,4340.866732
Barbados,2.942005,6.807268,5.973152
"Belarus, Rep. of",662.735834,584.843558,571.737099
Belgium,78236.493674,73510.703989,66254.924019
Belize,0.267735,2.65552,0.124148
Benin,0.905612,2.982851,0.901878
Bermuda,9.057332,0.504298,0.157714
Bhutan,8.111377,1.35636,0.23469
Bolivia,69.297805,80.976588,82.699249
Bosnia and Herzegovina,818.605022,746.575641,747.219478
Botswana,0.853139,0.850299,0.821644
Brazil,5849.051473,4966.158235,4693.388774
Brunei Darussalam,1.477532,1.401491,1.948509
Bulgaria,4951.266522,5107.808297,5054.837634
Burkina Faso,63.054232,63.052498,22.046383
Burundi,11.181766,15.468283,7.380121
Cabo Verde,0.736237,0.682747,0.55138
Cambodia,1309.54786,1240.661308,1015.824364
Cameroon,75.159338,76.182938,49.016974
Canada,4641.929564,5381.121656,5167.873204
Central African Rep.,0.344325,0.034871,0.789749
Chad,1.491191,67.313734,278.224821
Chile,1104.081017,864.407732,914.273976
"China, P.R.: Hong Kong",1722.739715,1492.894918,1777.250594
"China, P.R.: Macao",55.564777,24.345983,7.029329
"China, P.R.: Mainland",89091.096025,86174.767936,93725.061337
Colombia,416.137124,481.783625,485.748136
"Comoros, Union of the",4.654703,7.333013,5.283143
"Congo, Dem. Rep. of the",29.63762,12.122396,8.351048
"Congo, Rep. of",11.723155,8.653317,23.317977
Costa Rica,175.505312,197.479804,163.141624
Côte d'Ivoire,768.559929,567.143344,491.753991
"Croatia, Rep. of",2056.600459,2002.014444,1875.964265
Cuba,47.429995,40.872294,36.960225
"Curaçao, Kingdom of the Netherlands",2.037254,0.739116,0.460892
Cyprus,195.891858,162.897198,181.919299
Czech Rep.,61615.047476,58985.200052,56292.170971
Denmark,17411.389246,15523.915758,15180.682532
Djibouti,0.076308,0.37006,1.190999
Dominica,0.0056,0.048581,0.093546
Dominican Rep.,108.759182,120.488618,123.111997
Ecuador,431.967652,311.770811,327.82652
"Egypt, Arab Rep. of",1352.086053,1467.305712,1006.914402
El Salvador,65.418439,39.792921,36.478156
"Equatorial Guinea, Rep. of",59.414484,60.442452,0.087948
"Eritrea, The State of",0.098139,0.125573,0.113263
"Estonia, Rep. of",1059.382798,968.979229,988.596375
"Eswatini, Kingdom of",1.746112,2.404202,2.493169
"Ethiopia, The Federal Dem. Rep. of",170.947177,152.26219,163.422043
Falkland Islands (Malvinas),1.8962,2.430751,0.575951
Faroe Islands,21.707419,17.590885,13.855723
"Fiji, Rep. of",1.017271,1.486338,19.046219
Finland,9776.735967,9692.107123,8174.233042
France,81547.226043,78301.578773,67834.447141
French Polynesia,27.187422,2.669803,1.864451
Gabon,18.812482,5.491009,37.78805
"Gambia, The",0.236887,0.435455,0.266495
Georgia,75.507185,55.736671,67.345781
Ghana,393.219248,285.217477,276.681461
Gibraltar,4.11449,14.201264,83.617318
Greece,2266.276164,2344.142283,2480.253844
Greenland,1.974407,1.858378,0.793406
Grenada,1.109179,0.848676,0.615968
Guam,0.007657,0.002234,0.067957
Guatemala,107.388012,93.292458,119.778745
Guinea,108.523989,116.638364,138.407316
Guinea-Bissau,0.153351,0.001989,5.5e-5
Guyana,5.978874,2.624445,44.76656
Haiti,1.471776,2.244853,1.2955
Holy See,1.738347,1.176763,1.137674
Honduras,361.150936,306.311772,368.747303
Hungary,32660.811647,32551.171331,32148.794258
Iceland,122.096009,119.670237,124.76851
India,8376.290848,8428.115827,8033.377436
Indonesia,3259.375383,2840.830493,2663.497023
"Iran, Islamic Rep. of",477.911173,215.25683,301.840381
Iraq,1260.973789,738.931487,468.145228
Ireland,14108.482441,18613.261856,24331.19463
Israel,1760.803556,1739.979254,1750.428444
Italy,71311.734646,65052.917875,63008.125848
Jamaica,3.759637,4.142955,4.62478
Japan,19773.097063,18920.531351,17659.374492
Jordan,26.755216,28.341709,39.074897
"Kazakhstan, Rep. of",4355.381358,3448.1789,2702.672286
Kenya,123.4725,120.721724,129.227814
Kiribati,0.024142,0.065712,0.186355
"Korea, Dem. People's Rep. of",0.001343,,
"Korea, Rep. of",10839.829966,10508.844895,10263.319046
"Kosovo, Rep. of",29.68453,35.699659,51.543902
Kuwait,64.148635,89.934146,37.13343
Kyrgyz Rep.,16.00678,19.711161,21.52932
Lao People's Dem. Rep.,105.348768,116.219745,110.701989
Latvia,1189.27576,1017.708311,1049.670429
Lebanon,47.035031,41.718272,54.285196
"Lesotho, Kingdom of",1.664744,13.917989,2.624132
Liberia,147.03537,73.094004,98.222105
Libya,4069.918056,4386.743451,849.477543
Lithuania,2345.304986,2434.002684,2522.612007
Luxembourg,5115.179007,4856.682254,4270.486608
"Madagascar, Rep. of",283.421092,178.986463,174.843798
Malawi,24.924196,14.4444,20.41657
Malaysia,7806.460422,7062.871605,6718.73134
Maldives,22.483938,27.441823,25.932076
Mali,5.833766,4.63505,0.574004
Malta,569.598488,610.797314,522.027594
"Marshall Islands, Rep. of the",53.602004,7.519516,8.602167
"Mauritania, Islamic Rep. of",32.424635,25.003905,4.425605
Mauritius,40.566488,35.63462,27.389715
Mexico,7792.825014,8411.163828,7630.968256
"Micronesia, Federated States of",0.030404,0.014027,0.017798
"Moldova, Rep. of",239.843395,252.338207,257.483691
Mongolia,11.184494,15.997828,14.156791
Montenegro,20.974455,20.516866,27.906527
Montserrat,0.001512,0.001456,0.007405
Morocco,815.055223,835.903033,783.543712
"Mozambique, Rep. of",39.021817,61.37359,20.444512
Myanmar,685.121017,834.544892,803.959704
Namibia,121.42652,97.994496,181.315215
Nepal,30.520672,30.966308,24.303147
"Netherlands, The",180891.502344,173055.545916,160776.127674
New Caledonia,0.993843,0.626163,0.544169
New Zealand,590.080532,535.559066,594.809395
Nicaragua,87.200796,73.598338,77.979461
Niger,0.042638,0.291819,0.204154
Nigeria,2691.968268,2384.236674,1620.483304
"North Macedonia, Republic of",3069.600345,3317.118789,2954.531342
Norway,12657.510883,11236.128731,7119.456251
Oman,42.085746,34.399707,35.855027
Pakistan,1575.390363,1621.955999,1611.22019
"Palau, Rep. of",0.043842,0.0399,0.022096
Panama,21.185818,79.820952,79.676093
Papua New Guinea,235.308848,170.266271,143.271693
Paraguay,50.257502,41.477526,37.470146
Peru,1100.242781,1030.355223,986.758096
Philippines,3306.441878,3357.379566,2663.952307
"Poland, Rep. of",70656.381497,71128.414081,75616.807428
Portugal,7605.864343,7939.449577,6947.896966
Qatar,320.155848,293.834613,1148.46178
Romania,18352.021168,17132.139449,14884.444729
Russian Federation,38814.412171,31243.546659,21888.459025
Rwanda,22.213627,11.328857,16.37842
Samoa,0.380275,0.334936,0.268124
"San Marino, Rep. of",14.028167,12.646728,11.399314
"São Tomé and Príncipe, Dem. Rep. of",0.483619,0.050779,0.58551
Saudi Arabia,1041.432768,990.428078,839.579487
Senegal,7.196963,6.366065,7.36059
"Serbia, Rep. of",2166.01548,2229.491954,2239.133174
Seychelles,2.74461,1.728945,5.274003
Sierra Leone,2.954075,1.38925,2.249366
Singapore,5136.632094,4139.093579,3988.286134
"Sint Maarten, Kingdom of the Netherlands",0.151027,0.112251,0.182265
Slovak Rep.,20589.335611,20707.332697,18406.275017
"Slovenia, Rep. of",7762.988362,7392.525487,6842.548301
Solomon Islands,0.066869,0.028655,0.019472
Somalia,0.788011,2.673157,2.241854
South Africa,8097.871475,9402.246554,8598.359526
"South Sudan, Rep. of",0.146804,0.07405,0.013623
Spain,38809.118338,37668.342776,35859.135775
Sri Lanka,627.62813,618.674367,560.482366
St. Kitts and Nevis,6.621784,4.589512,3.869176
St. Lucia,0.046355,0.029081,0.058575
St. Vincent and the Grenadines,0.033058,5.6e-5,0.011968
Sudan,14.1004,11.642446,15.865364
Suriname,0.330538,0.400075,0.635434
Sweden,18798.955286,17404.532102,17164.010169
Switzerland,50931.404799,47484.744638,47289.213039
Syrian Arab Rep.,16.47563,15.192644,15.071436
Taiwan Province of China,9753.272493,9028.226152,8578.050567
"Tajikistan, Rep. of",1.753095,2.174894,3.084666
"Tanzania, United Rep. of",44.873832,63.527681,51.524281
Thailand,5627.694135,5027.587425,4819.915674
"Timor-Leste, Dem. Rep. of",2.739179,1.321242,0.628023
Togo,6.445001,4.224428,4.028684
Tonga,0.011701,0.049091,0.000578
Trinidad and Tobago,18.431126,65.276863,28.944429
Tunisia,1773.535085,1765.072112,1640.358789
Turkey,16505.004727,14878.136516,14457.625963
Turkmenistan,1.957686,0.84811,1.071799
Tuvalu,0.211641,0.137483,0.052447
Uganda,114.026422,90.638787,99.249784
Ukraine,2412.512765,2510.560134,2110.422018
United Arab Emirates,1289.925439,1030.433014,638.113601
United Kingdom,48190.743798,45393.052249,43607.776963
United States,57378.050935,60630.785263,57857.751922
Uruguay,236.908405,253.200145,153.815129
"Uzbekistan, Rep. of",22.966624,30.032595,30.780936
Vanuatu,0.000878,0.049519,0.168229
"Venezuela, Rep. Bolivariana de",317.066524,273.291899,16.315035
Vietnam,8717.897291,8002.84635,8654.587758
West Bank and Gaza,1.499488,2.72723,4.777302
"Yemen, Rep. of",2.157614,33.702595,14.185923
Zambia,24.776261,51.924855,64.997142
Zimbabwe,22.01897,22.608139,18.036933
